[
  {
    "id": 0,
    "guid": "21d5450a-3898-4bf2-9f02-9801e67fb40e",
    "isActive": true,
    "balance": "$1,010.0",
    "age": 37,
    "eyeColor": "blue",
    "name": "Aisha Velasquez",
    "gender": "female",
    "company": "BUGSALL",
    "email": "aishavelasquez@bugsall.com",
    "phone": "+1 (906) 447-2711",
    "address": "176 Tehama Street, Durham, Connecticut, 3324",
    "about": "Eu Lorem commodo nisi exercitation dolore. Eiusmod officia mollit proident labore ea nostrud elit esse sit commodo. Magna sunt nostrud magna irure magna exercitation ipsum ullamco irure nostrud.\r\n",
    "registered": "2016-02-14T09:26:27 -03:00",
    "latitude": -20.150163,
    "longitude": -2.513911,
    "tags": [
      "veniam",
      "culpa",
      "incididunt",
      "et",
      "occaecat",
      "fugiat",
      "dolor"
    ],
    "friends": [
      {
        "id": 7
      },
      {
        "id": 1
      }
    ],
    "favoriteFruit": "banana"
  },
  {
    "id": 1,
    "guid": "20f134a7-e3ae-4090-9a9d-3f114971dee5",
    "isActive": true,
    "balance": "$3,050.56",
    "age": 20,
    "eyeColor": "brown",
    "name": "Brady Tyler",
    "gender": "male",
    "company": "PYRAMAX",
    "email": "bradytyler@pyramax.com",
    "phone": "+1 (842) 443-3346",
    "address": "892 Brooklyn Avenue, Cloverdale, Oklahoma, 2475",
    "about": "Eu nisi cillum incididunt et sint adipisicing laboris proident nulla tempor adipisicing veniam cillum. Aliquip nisi incididunt ea reprehenderit amet id occaecat veniam fugiat eu pariatur ullamco incididunt. Tempor aliquip tempor magna culpa esse sint adipisicing officia labore enim.\r\n",
    "registered": "2014-02-19T11:40:41 -03:00",
    "latitude": 70.483619,
    "longitude": 54.126795,
    "tags": [
      "commodo",
      "et",
      "et",
      "dolor",
      "proident",
      "qui",
      "sit"
    ],
    "friends": [
      {
        "id": 9
      },
      {
        "id": 5
      }
    ],
    "favoriteFruit": "strawberry"
  },
  {
    "id": 2,
    "guid": "bbb49e5f-81b7-42ea-9039-55361fdbd916",
    "isActive": false,
    "balance": "$3,208.23",
    "age": 37,
    "eyeColor": "brown",
    "name": "Guy Trujillo",
    "gender": "male",
    "company": "EARTHPURE",
    "email": "guytrujillo@earthpure.com",
    "phone": "+1 (889) 466-3657",
    "address": "883 Chestnut Avenue, Volta, Texas, 8893",
    "about": "Enim nulla irure irure officia. Sint in aliquip reprehenderit amet ex aliquip anim velit elit exercitation proident enim est. Ipsum occaecat incididunt elit minim sunt irure eu excepteur pariatur fugiat eiusmod.\r\n",
    "registered": "2016-03-27T09:02:36 -03:00",
    "latitude": -71.057353,
    "longitude": -32.395105,
    "tags": [
      "velit",
      "labore",
      "incididunt",
      "adipisicing",
      "adipisicing",
      "pariatur",
      "esse"
    ],
    "friends": [
      {
        "id": 4
      },
      {
        "id": 1
      }
    ],
    "favoriteFruit": "strawberry"
  },
  {
    "id": 3,
    "guid": "e4402a42-d4e3-45dc-a465-1b673f06267c",
    "isActive": false,
    "balance": "$2,720.41",
    "age": 39,
    "eyeColor": "green",
    "name": "Barker Powell",
    "gender": "male",
    "company": "STOCKPOST",
    "email": "barkerpowell@stockpost.com",
    "phone": "+1 (987) 422-3840",
    "address": "736 Devoe Street, Westphalia, Nevada, 6467",
    "about": "Tempor dolor amet cillum proident voluptate veniam laboris do officia labore deserunt magna labore eiusmod. Nostrud enim in do nostrud id voluptate anim adipisicing dolore nulla exercitation duis reprehenderit cupidatat. Est non ad magna veniam. Nulla et veniam in occaecat labore. Commodo non laborum minim dolor ullamco proident ipsum ullamco. Velit aliquip amet do et et nulla Lorem qui elit.\r\n",
    "registered": "2015-11-10T08:27:07 -03:00",
    "latitude": 48.239663,
    "longitude": -14.683704,
    "tags": [
      "est",
      "ad",
      "do",
      "laboris",
      "minim",
      "Lorem",
      "quis"
    ],
    "friends": [
      {
        "id": 14
      },
      {
        "id": 9
      }
    ],
    "favoriteFruit": "apple"
  },
  {
    "id": 4,
    "guid": "e25e6599-998f-45b7-97e9-2de4813d6a8d",
    "isActive": true,
    "balance": "$1,655.73",
    "age": 22,
    "eyeColor": "brown",
    "name": "Goldie Clemons",
    "gender": "female",
    "company": "INQUALA",
    "email": "goldieclemons@inquala.com",
    "phone": "+1 (969) 407-3505",
    "address": "307 McKibben Street, Hegins, Indiana, 327",
    "about": "Eiusmod non veniam exercitation est et. Tempor deserunt consectetur sit magna velit est adipisicing. Voluptate quis elit enim laborum minim aliqua laboris. Magna duis veniam ad et ipsum. Laborum culpa veniam eiusmod dolor dolore labore veniam anim consectetur consequat.\r\n",
    "registered": "2017-11-06T10:14:14 -03:00",
    "latitude": -18.433394,
    "longitude": 177.401797,
    "tags": [
      "nulla",
      "minim",
      "ea",
      "deserunt",
      "ea",
      "magna",
      "ex"
    ],
    "friends": [
      {
        "id": 9
      },
      {
        "id": 16
      }
    ],
    "favoriteFruit": "apple"
  },
  {
    "id": 5,
    "guid": "ac197a04-efde-4e58-b78f-3d09ecc341c3",
    "isActive": false,
    "balance": "$2,105.90",
    "age": 26,
    "eyeColor": "green",
    "name": "Caldwell Daniels",
    "gender": "male",
    "company": "ACRODANCE",
    "email": "caldwelldaniels@acrodance.com",
    "phone": "+1 (880) 421-2640",
    "address": "590 McKibbin Street, Templeton, Montana, 4890",
    "about": "Ipsum non commodo cillum laboris cillum ipsum ipsum sunt laborum nisi qui ullamco pariatur. Fugiat dolore officia veniam minim culpa sit aute aliquip duis ad adipisicing proident. Quis commodo anim laboris Lorem et magna adipisicing est cupidatat minim excepteur tempor sit. Irure mollit ullamco aliqua sunt minim amet fugiat. Adipisicing amet fugiat non esse exercitation eu exercitation aliqua amet dolor reprehenderit et.\r\n",
    "registered": "2016-02-15T11:47:09 -03:00",
    "latitude": 6.412251,
    "longitude": 52.309519,
    "tags": [
      "duis",
      "ad",
      "Lorem",
      "exercitation",
      "et",
      "exercitation",
      "aliquip"
    ],
    "friends": [
      {
        "id": 9
      },
      {
        "id": 16
      }
    ],
    "favoriteFruit": "strawberry"
  },
  {
    "id": 6,
    "guid": "5e342886-81d5-4919-810a-56c20a1d8dfc",
    "isActive": false,
    "balance": "$3,276.0",
    "age": 35,
    "eyeColor": "green",
    "name": "Bonnie Guerrero",
    "gender": "female",
    "company": "AMTAS",
    "email": "bonnieguerrero@amtas.com",
    "phone": "+1 (960) 543-3795",
    "address": "930 Schenck Street, Chloride, Georgia, 1894",
    "about": "Eiusmod quis qui labore sint cillum tempor deserunt commodo minim sit ut. Pariatur incididunt duis officia eiusmod culpa ad quis voluptate commodo cillum mollit elit. Aliqua nisi aliqua cillum do adipisicing quis amet amet anim. Reprehenderit ut qui aliquip commodo.\r\n",
    "registered": "2015-07-25T09:20:19 -03:00",
    "latitude": -14.348788,
    "longitude": -177.066651,
    "tags": [
      "duis",
      "aute",
      "veniam",
      "commodo",
      "id",
      "ad",
      "exercitation"
    ],
    "friends": [
      {
        "id": 1
      },
      {
        "id": 3
      }
    ],
    "favoriteFruit": "banana"
  },
  {
    "id": 7,
    "guid": "e8562520-ad79-4f0a-ba0a-1eb9e9390e94",
    "isActive": true,
    "balance": "$1,011.95",
    "age": 24,
    "eyeColor": "green",
    "name": "Mcmahon Parrish",
    "gender": "male",
    "company": "ZILLATIDE",
    "email": "mcmahonparrish@zillatide.com",
    "phone": "+1 (906) 554-3913",
    "address": "372 Dodworth Street, Twilight, New Hampshire, 6916",
    "about": "Adipisicing cupidatat laboris esse qui sunt. Nostrud culpa ea qui est. Ea excepteur ea et dolor proident qui ipsum sunt nisi amet ullamco exercitation fugiat.\r\n",
    "registered": "2014-04-05T08:37:28 -03:00",
    "latitude": 1.941016,
    "longitude": 163.487871,
    "tags": [
      "et",
      "sit",
      "dolor",
      "officia",
      "ut",
      "proident",
      "proident"
    ],
    "friends": [
      {
        "id": 11
      },
      {
        "id": 8
      }
    ],
    "favoriteFruit": "apple"
  },
  {
    "id": 8,
    "guid": "4687c2e7-d0aa-49d6-bd1c-c61fa9f1e0d9",
    "isActive": true,
    "balance": "$1,441.32",
    "age": 25,
    "eyeColor": "brown",
    "name": "Mccray Kim",
    "gender": "male",
    "company": "AQUAMATE",
    "email": "mccraykim@aquamate.com",
    "phone": "+1 (977) 509-3699",
    "address": "688 Seagate Avenue, Glenville, American Samoa, 1354",
    "about": "Eu nostrud Lorem ut occaecat ad sint. Sit in duis culpa ut ullamco sunt commodo. Elit dolor do anim tempor mollit et ea in voluptate consectetur. Adipisicing fugiat tempor aliqua sint irure deserunt ex cupidatat culpa officia. Sunt id sint culpa pariatur tempor deserunt culpa duis anim. Dolore cupidatat eu nulla nulla enim.\r\n",
    "registered": "2017-11-27T04:43:36 -03:00",
    "latitude": 68.555789,
    "longitude": -15.010909,
    "tags": [
      "sint",
      "ipsum",
      "dolore",
      "cillum",
      "minim",
      "pariatur",
      "nulla"
    ],
    "friends": [
      {
        "id": 7
      },
      {
        "id": 15
      }
    ],
    "favoriteFruit": "strawberry"
  },
  {
    "id": 9,
    "guid": "16dc4816-5765-48c8-99ff-f1fe69373cf8",
    "isActive": false,
    "balance": "$1,670.09",
    "age": 25,
    "eyeColor": "brown",
    "name": "Craig Short",
    "gender": "male",
    "company": "EXOSIS",
    "email": "craigshort@exosis.com",
    "phone": "+1 (917) 451-2501",
    "address": "646 Monument Walk, Kimmell, Iowa, 7159",
    "about": "Mollit anim nostrud nisi cillum culpa ex veniam enim aliquip tempor aliquip ut consectetur esse. Cupidatat amet nulla et deserunt Lorem occaecat excepteur est laboris excepteur sit aliqua et. Dolore minim officia commodo commodo commodo minim. Nostrud est enim pariatur quis ex incididunt Lorem eiusmod fugiat. Qui voluptate magna sunt irure magna pariatur sit ipsum commodo ut pariatur.\r\n",
    "registered": "2015-10-22T10:07:15 -03:00",
    "latitude": -7.522995,
    "longitude": 133.676323,
    "tags": [
      "commodo",
      "laboris",
      "nostrud",
      "anim",
      "exercitation",
      "nulla",
      "voluptate"
    ],
    "friends": [
      {
        "id": 19
      },
      {
        "id": 3
      }
    ],
    "favoriteFruit": "banana"
  },
  {
    "id": 10,
    "guid": "c57657ef-f593-43cc-aeb9-ba19e640e7aa",
    "isActive": false,
    "balance": "$3,253.53",
    "age": 35,
    "eyeColor": "blue",
    "name": "Hurley Larson",
    "gender": "male",
    "company": "STRALOY",
    "email": "hurleylarson@straloy.com",
    "phone": "+1 (872) 536-3202",
    "address": "820 Ridge Court, Dana, Washington, 1786",
    "about": "Consequat minim ipsum minim elit exercitation nisi dolore fugiat velit. Magna eiusmod ad et do est minim ad voluptate commodo minim. Ut exercitation voluptate exercitation do consequat. Irure excepteur ea anim aliqua culpa enim. Nisi laboris est amet aliqua aute est laboris sunt aliquip adipisicing id sit laborum aute. Id enim in aliquip sunt incididunt sit ea consectetur laboris magna duis dolor in.\r\n",
    "registered": "2016-08-11T08:27:48 -03:00",
    "latitude": -79.332597,
    "longitude": 42.731545,
    "tags": [
      "anim",
      "commodo",
      "nisi",
      "consequat",
      "veniam",
      "deserunt",
      "tempor"
    ],
    "friends": [
      {
        "id": 4
      },
      {
        "id": 14
      }
    ],
    "favoriteFruit": "strawberry"
  },
  {
    "id": 11,
    "guid": "b0ad006b-bf14-4937-9357-ab05a7c692a8",
    "isActive": false,
    "balance": "$2,614.05",
    "age": 21,
    "eyeColor": "green",
    "name": "Katie Shepherd",
    "gender": "female",
    "company": "DUFLEX",
    "email": "katieshepherd@duflex.com",
    "phone": "+1 (956) 438-2133",
    "address": "165 Losee Terrace, Needmore, Idaho, 1919",
    "about": "Nisi sunt proident ad minim cupidatat cillum exercitation et proident sint quis est. Esse labore enim reprehenderit Lorem elit adipisicing amet commodo excepteur ad. Laborum mollit officia ipsum aliquip reprehenderit nisi reprehenderit nostrud eu consectetur.\r\n",
    "registered": "2014-05-30T02:58:14 -03:00",
    "latitude": 27.027638,
    "longitude": -146.410139,
    "tags": [
      "est",
      "aliqua",
      "laboris",
      "est",
      "laborum",
      "tempor",
      "ea"
    ],
    "friends": [
      {
        "id": 16
      },
      {
        "id": 0
      }
    ],
    "favoriteFruit": "apple"
  },
  {
    "id": 12,
    "guid": "11b8bb76-c1ac-41b4-ae6b-94ab78d9840c",
    "isActive": true,
    "balance": "$3,541.73",
    "age": 22,
    "eyeColor": "green",
    "name": "Vasquez Bird",
    "gender": "male",
    "company": "GEEKY",
    "email": "vasquezbird@geeky.com",
    "phone": "+1 (987) 595-3355",
    "address": "906 Prospect Street, Brecon, Guam, 2985",
    "about": "Elit enim cupidatat est fugiat amet dolore anim non proident. Ad incididunt nulla enim aute cupidatat Lorem do velit. Sit consequat quis nisi sunt. Adipisicing duis aliqua aute consectetur sint cillum irure anim non amet excepteur. Et esse voluptate adipisicing dolore laborum laboris consectetur dolor irure reprehenderit dolor.\r\n",
    "registered": "2014-07-01T08:11:16 -03:00",
    "latitude": -64.441517,
    "longitude": 129.553199,
    "tags": [
      "eiusmod",
      "aliquip",
      "exercitation",
      "aute",
      "ullamco",
      "laborum",
      "ullamco"
    ],
    "friends": [
      {
        "id": 5
      },
      {
        "id": 8
      }
    ],
    "favoriteFruit": "strawberry"
  },
  {
    "id": 13,
    "guid": "cfe811e5-7f4e-433f-b880-93dfa4d7b473",
    "isActive": false,
    "balance": "$2,965.69",
    "age": 21,
    "eyeColor": "brown",
    "name": "Stout Nelson",
    "gender": "male",
    "company": "FURNIGEER",
    "email": "stoutnelson@furnigeer.com",
    "phone": "+1 (835) 534-3880",
    "address": "591 Johnson Avenue, Slovan, Vermont, 650",
    "about": "Id pariatur ex nulla veniam eiusmod. Magna nostrud qui exercitation commodo consequat dolor veniam id. Ea dolore esse amet culpa. Do incididunt id dolore sit nulla nostrud adipisicing et nisi sint veniam ut eu do. Sint incididunt qui et deserunt ullamco dolore adipisicing magna magna dolore. Mollit sint commodo adipisicing magna tempor in proident dolor exercitation cupidatat fugiat anim.\r\n",
    "registered": "2015-06-27T03:43:01 -03:00",
    "latitude": -21.81656,
    "longitude": 36.45878,
    "tags": [
      "non",
      "consequat",
      "exercitation",
      "sunt",
      "ullamco",
      "ullamco",
      "exercitation"
    ],
    "friends": [
      {
        "id": 11
      },
      {
        "id": 3
      }
    ],
    "favoriteFruit": "strawberry"
  },
  {
    "id": 14,
    "guid": "2c98e6b5-e037-41cd-9bd1-370a6e684417",
    "isActive": false,
    "balance": "$3,576.0",
    "age": 32,
    "eyeColor": "brown",
    "name": "Tameka Lott",
    "gender": "female",
    "company": "OVERFORK",
    "email": "tamekalott@overfork.com",
    "phone": "+1 (923) 549-3425",
    "address": "308 Raleigh Place, Boykin, Federated States Of Micronesia, 4588",
    "about": "Et id do enim excepteur pariatur labore nostrud exercitation Lorem. Aliquip veniam fugiat ad excepteur reprehenderit quis reprehenderit quis. Ipsum excepteur veniam esse laboris sint.\r\n",
    "registered": "2014-01-21T01:31:57 -03:00",
    "latitude": -12.716962,
    "longitude": -53.756709,
    "tags": [
      "fugiat",
      "commodo",
      "est",
      "Lorem",
      "in",
      "dolore",
      "dolor"
    ],
    "friends": [
      {
        "id": 16
      },
      {
        "id": 18
      }
    ],
    "favoriteFruit": "strawberry"
  },
  {
    "id": 15,
    "guid": "4c512f82-20db-4e3d-a072-01829a839d3e",
    "isActive": true,
    "balance": "$1,287.61",
    "age": 31,
    "eyeColor": "green",
    "name": "Lynda Gordon",
    "gender": "female",
    "company": "ENDICIL",
    "email": "lyndagordon@endicil.com",
    "phone": "+1 (989) 519-3945",
    "address": "782 Llama Court, Datil, Arkansas, 818",
    "about": "Qui adipisicing cillum dolore dolor quis. Aliqua excepteur et incididunt excepteur occaecat non excepteur cillum consectetur aliquip consequat labore. Nostrud Lorem mollit tempor deserunt nulla officia amet irure voluptate aliqua sunt nulla.\r\n",
    "registered": "2015-01-15T08:29:40 -03:00",
    "latitude": 32.757567,
    "longitude": 100.988571,
    "tags": [
      "consequat",
      "reprehenderit",
      "excepteur",
      "deserunt",
      "reprehenderit",
      "aute",
      "veniam"
    ],
    "friends": [
      {
        "id": 4
      },
      {
        "id": 16
      }
    ],
    "favoriteFruit": "banana"
  },
  {
    "id": 16,
    "guid": "dd72a251-4a7d-4b69-82da-e11f939c776d",
    "isActive": true,
    "balance": "$2,291.76",
    "age": 27,
    "eyeColor": "brown",
    "name": "Serrano Montgomery",
    "gender": "male",
    "company": "ZENTHALL",
    "email": "serranomontgomery@zenthall.com",
    "phone": "+1 (834) 566-2247",
    "address": "452 Woodrow Court, Websterville, Florida, 9094",
    "about": "Pariatur in veniam incididunt laboris dolor deserunt ullamco. Ipsum cillum deserunt fugiat aliqua. Nulla magna voluptate incididunt cupidatat reprehenderit est aliquip exercitation. Qui reprehenderit dolor voluptate deserunt Lorem proident pariatur. Id commodo ullamco ullamco sunt non labore voluptate aute excepteur nisi. Occaecat labore eiusmod dolore voluptate. Anim est dolor ad aliquip eiusmod.\r\n",
    "registered": "2015-05-11T09:08:49 -03:00",
    "latitude": -10.309931,
    "longitude": -19.473416,
    "tags": [
      "duis",
      "proident",
      "veniam",
      "cillum",
      "esse",
      "duis",
      "proident"
    ],
    "friends": [
      {
        "id": 18
      },
      {
        "id": 15
      }
    ],
    "favoriteFruit": "strawberry"
  },
  {
    "id": 17,
    "guid": "f7646b90-1b6d-4633-8a29-99d56d3bdc89",
    "isActive": false,
    "balance": "$1,736.13",
    "age": 30,
    "eyeColor": "brown",
    "name": "Yolanda Hoffman",
    "gender": "female",
    "company": "COMDOM",
    "email": "yolandahoffman@comdom.com",
    "phone": "+1 (909) 519-3184",
    "address": "307 Nova Court, Homestead, Delaware, 7858",
    "about": "Est fugiat duis cupidatat non amet irure nostrud nulla in occaecat amet est. Labore incididunt do deserunt qui consequat sint quis quis sunt minim non. Aliquip anim culpa sint nulla. Eiusmod sint fugiat et ullamco in incididunt aute aliqua anim cillum ipsum minim. Pariatur commodo anim nisi incididunt ullamco sit nisi do consequat sit.\r\n",
    "registered": "2015-02-07T11:29:19 -03:00",
    "latitude": -47.879629,
    "longitude": -1.609263,
    "tags": [
      "culpa",
      "velit",
      "duis",
      "dolore",
      "incididunt",
      "ut",
      "et"
    ],
    "friends": [
      {
        "id": 11
      },
      {
        "id": 10
      }
    ],
    "favoriteFruit": "strawberry"
  },
  {
    "id": 18,
    "guid": "37a311a6-4d9f-4b78-ae05-fc1e10ed5073",
    "isActive": false,
    "balance": "$2,702.58",
    "age": 28,
    "eyeColor": "green",
    "name": "Lynch Dean",
    "gender": "male",
    "company": "KRAGGLE",
    "email": "lynchdean@kraggle.com",
    "phone": "+1 (862) 422-3024",
    "address": "674 Lynch Street, Brandywine, District Of Columbia, 3384",
    "about": "Dolor sit adipisicing irure dolore culpa non tempor ipsum ullamco Lorem ipsum est est. Mollit veniam elit excepteur duis quis ex duis tempor tempor excepteur officia mollit cupidatat. Deserunt ea aliqua eiusmod anim do incididunt nostrud enim culpa quis. Fugiat in Lorem excepteur duis veniam. Incididunt quis duis est laboris in eu velit.\r\n",
    "registered": "2015-07-18T10:49:39 -03:00",
    "latitude": 83.990236,
    "longitude": -78.964136,
    "tags": [
      "irure",
      "ut",
      "amet",
      "nulla",
      "duis",
      "cillum",
      "irure"
    ],
    "friends": [
      {
        "id": 1
      },
      {
        "id": 17
      }
    ],
    "favoriteFruit": "apple"
  },
  {
    "id": 19,
    "guid": "6a28e2cd-e65a-45a1-aba6-991962e66da2",
    "isActive": true,
    "balance": "$2,982.0",
    "age": 29,
    "eyeColor": "blue",
    "name": "Poole Webb",
    "gender": "male",
    "company": "ZOMBOID",
    "email": "poolewebb@zomboid.com",
    "phone": "+1 (852) 477-2465",
    "address": "797 Fulton Street, Drytown, Maryland, 4392",
    "about": "Proident esse adipisicing enim eiusmod ex est cupidatat nisi est duis. Qui fugiat reprehenderit anim quis ullamco elit do. Quis enim culpa elit aliquip pariatur ut irure pariatur elit proident. Ullamco nulla veniam aliqua do anim velit officia. Cillum et aliqua est mollit. Consectetur ipsum ullamco ut nostrud proident.\r\n",
    "registered": "2017-10-04T08:02:12 -03:00",
    "latitude": -30.460578,
    "longitude": -101.223709,
    "tags": [
      "do",
      "labore",
      "culpa",
      "laboris",
      "cupidatat",
      "cillum",
      "est"
    ],
    "friends": [
      {
        "id": 0
      },
      {
        "id": 9
      }
    ],
    "favoriteFruit": "banana"
  }
]